{
  "positionX": "left",
  "widgets": [
    "inhibitors",
    "title",
    "dnd",
    "buttons-grid",
    "notifications"
  ],
  "widget-config": {
    "buttons-grid": {
      "actions": [
        {
          "label": "Screen Lock",
          "type": "toggle",
          "active": true,
          "command": "sh -c '[[ $SWAYNC_TOGGLE_STATE == true ]] && ~/bin/swayidle-start || killall swayidle'",
          "updatecommand": "sh -c 'pidof swayidle && echo true || echo false'"
        }
      ]
    }
  }
}
